[gd_scene load_steps=3 format=3 uid="uid://cuhn3q3hns5hv"]

[ext_resource type="Script" path="res://Scripts/RestartGameButton.gd" id="1_1cg5r"]

[sub_resource type="StyleBoxFlat" id="StyleBoxFlat_2r7od"]
bg_color = Color(0.886275, 0.490196, 0.745098, 0.188235)

[node name="GameOverUI" type="Control"]
z_index = 100
layout_mode = 3
anchors_preset = 15
anchor_right = 1.0
anchor_bottom = 1.0
grow_horizontal = 2
grow_vertical = 2

[node name="CenterContainer" type="CenterContainer" parent="."]
layout_mode = 0
offset_right = 1159.0
offset_bottom = 648.0

[node name="VBoxContainer" type="VBoxContainer" parent="CenterContainer"]
layout_mode = 2

[node name="Container" type="PanelContainer" parent="CenterContainer/VBoxContainer"]
layout_mode = 2
theme_override_styles/panel = SubResource("StyleBoxFlat_2r7od")

[node name="Label" type="Label" parent="CenterContainer/VBoxContainer/Container"]
layout_mode = 2
theme_override_colors/font_color = Color(0.717647, 0, 0, 1)
theme_override_font_sizes/font_size = 65
text = "You're dead, son!"

[node name="Button" type="Button" parent="CenterContainer/VBoxContainer"]
layout_mode = 2
theme_override_colors/font_color = Color(0.839216, 1, 0.6, 1)
theme_override_font_sizes/font_size = 40
text = "--> Start Anew <--"
script = ExtResource("1_1cg5r")

[connection signal="pressed" from="CenterContainer/VBoxContainer/Button" to="CenterContainer/VBoxContainer/Button" method="_on_pressed"]
