[gd_scene load_steps=3 format=3 uid="uid://cdqjf6euytwnv"]

[ext_resource type="Script" path="res://Scripts/Player/Weapon_Shield.gd" id="1_ux1ge"]

[sub_resource type="RectangleShape2D" id="RectangleShape2D_mk3pq"]
size = Vector2(16, 96)

[node name="Weapon_Shield" type="Node2D"]
script = ExtResource("1_ux1ge")

[node name="ShieldDamageArea" type="Area2D" parent="."]

[node name="ShieldDamageAreaShape" type="CollisionShape2D" parent="ShieldDamageArea"]
position = Vector2(64, 0)
shape = SubResource("RectangleShape2D_mk3pq")

[node name="Polygon2D" type="Polygon2D" parent="ShieldDamageArea"]
color = Color(0.388235, 1, 1, 0.223529)
polygon = PackedVector2Array(56, -48, 72, -48, 72, 48, 56, 48)

[connection signal="area_entered" from="ShieldDamageArea" to="." method="_on_area_2d_area_entered"]
